{
    "categoryToIcon": {
        "i49UoM1x": "icons/categories/shield-blue--bias.svg",
        "ZGTCtwII": "icons/categories/shield-yellow--clickbait.svg",
        "P8TSS5hK": "icons/categories/shield-yellow--conspiracy.svg",
        "6QeImre1": "icons/categories/shield-yellow--dark-pattern.svg",
        "oJaGtjGH": "icons/categories/shield-yellow--fake-news.svg",
        "MnKPyRr9": "icons/categories/shield-green--goverment.svg",
        "29HGD7sf": "icons/categories/shield-blue--press.svg",
        "H6dsAI7l": "icons/categories/shield-black--rad-ron.svg",
        "sjfghG67": "icons/levels/shield-black.svg",
        "fYWUmiZK": "icons/categories/shield-yellow--hoax.svg",
        "BHGF90sA": "icons/categories/shield-yellow--spam.svg",
        "heHq9ik0": "icons/categories/shield-blue--casino.svg",
        "S3bbU7i2": "icons/categories/shield-red--spyware.svg",
        "uTy76gf8": "icons/categories/shield-red--malware.svg",
        "W6fdj8sj": "icons/categories/shield-black--svenskhandel.svg",
        "whGD12sh": "icons/categories/shield-black--finansinspektionen.svg",
        "Wu133hyG": "icons/categories/shield-red--phishing.svg",
        "y7hj00Hj": "icons/categories/shield-red--fraud-scam.svg",
        "jkAD89sd": "icons/levels/badge-member.svg",
        "Mn06k3a2": "icons/levels/badge-member.svg"
    }
}
