<svg width="67" height="77" viewBox="0 0 67 77" fill="none" xmlns="http://www.w3.org/2000/svg">
<path d="M33.4973 4.70865e-09C21.2053 0.000160052 8.36789 4.07948 0.838673 12.9203L0.0486743 13.8479L0.00997206 15.0652L3.49254 15.1757C0.00997206 15.0652 0.00987617 15.0682 0.00987617 15.0682L0.00975274 15.0722L0.00943018 15.0832L0.00852421 15.1165C0.00782071 15.1438 0.00694037 15.1811 0.00601447 15.2283C0.00416265 15.3226 0.00212785 15.4563 0.000963164 15.6272C-0.00136572 15.9689 -0.000217182 16.4597 0.0128568 17.083C0.0389934 18.329 0.112858 20.1075 0.302534 22.284C0.681198 26.6292 1.52501 32.6029 3.39342 39.1122C7.11547 52.0794 15.0436 67.6072 31.9155 76.1948L33.4973 77L35.0792 76.1948C51.9509 67.6073 59.8804 52.0797 63.6038 39.1126C65.473 32.6033 66.3175 26.6296 66.6967 22.2845C66.8866 20.1079 66.9607 18.3294 66.987 17.0834C67.0001 16.4602 67.0014 15.9693 66.9991 15.6276C66.9979 15.4567 66.9959 15.3231 66.9941 15.2288C66.9932 15.1816 66.9923 15.1442 66.9916 15.117L66.9907 15.0836L66.9904 15.0727L66.9902 15.0687C66.9902 15.0687 66.9901 15.0656 63.5076 15.1757L66.9901 15.0656L66.9516 13.8477L66.161 12.9197C58.6288 4.07918 45.7898 -0.000160033 33.4973 4.70865e-09Z" fill="#24AE18"/>
<path d="M17.9937 46.2279H16V48.0001H51V46.2279H49.0063H17.9937Z" fill="white"/>
<path d="M34.3285 15.4367H37.4874L36.6678 14.2715C36.6397 14.2329 36.6246 14.1864 36.6246 14.1386C36.6246 14.0908 36.6397 14.0443 36.6678 14.0057L37.4874 13H34.2311C34.2934 13.119 34.3268 13.2511 34.3285 13.3854V15.4367Z" fill="white"/>
<path d="M48.7848 44.0127H46.7912H20.2089H18.2152V45.7848H48.7848V44.0127Z" fill="white"/>
<path d="M46.5697 41.7975H44.576H41.6032H39.419H36.4418H30.5583H27.5811H25.3969H22.4241H20.4304V43.5696H46.5697V41.7975Z" fill="white"/>
<path d="M44.3545 28.5063H41.8247V41.3544H44.3545V28.5063Z" fill="white"/>
<path d="M39.1931 28.5063H36.6633V41.3544H39.1931V28.5063Z" fill="white"/>
<path d="M33.8854 16.9962V13.3854C33.8854 13.2832 33.8448 13.1852 33.7725 13.1129C33.7002 13.0406 33.6022 13 33.4999 13C33.3977 13 33.2997 13.0406 33.2274 13.1129C33.1551 13.1852 33.1145 13.2832 33.1145 13.3854V16.9962H33.4999H33.8854Z" fill="white"/>
<path d="M25.1754 28.5063H22.6456V41.3544H25.1754V28.5063Z" fill="white"/>
<path d="M30.3322 28.5063H27.8025V41.3544H30.3322V28.5063Z" fill="white"/>
<path d="M25.3969 28.0633H27.5811H30.5583H36.4418H39.419H41.6032H44.576H46.5697V26.2911H45.2095H21.7905H20.4304V28.0633H22.4241H25.3969Z" fill="white"/>
<path d="M33.5 17.4304C27.2665 17.4304 22.1715 21.1874 22.0165 25.8481H44.9836C44.8285 21.1962 39.7336 17.4304 33.5 17.4304Z" fill="white"/>
</svg>
