<svg width="67" height="77" viewBox="0 0 67 77" fill="none" xmlns="http://www.w3.org/2000/svg">
<path d="M33.4973 4.70865e-09C21.2053 0.000160052 8.36789 4.07948 0.838673 12.9203L0.0486743 13.8479L0.00997206 15.0652L3.49254 15.1757C0.00997206 15.0652 0.00987617 15.0682 0.00987617 15.0682L0.00975274 15.0722L0.00943018 15.0832L0.00852422 15.1165C0.00782071 15.1438 0.00694037 15.1811 0.00601447 15.2283C0.00416265 15.3226 0.00212785 15.4563 0.000963164 15.6272C-0.00136572 15.9689 -0.000217182 16.4597 0.0128568 17.083C0.0389934 18.329 0.112858 20.1075 0.302534 22.284C0.681198 26.6292 1.52501 32.6029 3.39342 39.1122C7.11547 52.0794 15.0436 67.6072 31.9155 76.1948L33.4973 77L35.0792 76.1948C51.9509 67.6073 59.8804 52.0797 63.6038 39.1126C65.473 32.6033 66.3175 26.6296 66.6967 22.2845C66.8866 20.1079 66.9607 18.3294 66.987 17.0834C67.0001 16.4602 67.0014 15.9693 66.9991 15.6276C66.9979 15.4567 66.9959 15.3231 66.9941 15.2287C66.9932 15.1816 66.9923 15.1442 66.9916 15.117L66.9907 15.0836L66.9904 15.0727L66.9902 15.0687C66.9902 15.0687 66.9901 15.0656 63.5076 15.1757L66.9901 15.0656L66.9516 13.8477L66.161 12.9197C58.6288 4.07918 45.7898 -0.000160033 33.4973 4.70865e-09Z" fill="#E42E2E"/>
<path d="M24.3819 28.8042C24.5616 28.8859 28.8328 30.7397 33.5449 30.7397C37.8324 30.7397 42.4058 28.894 42.6018 28.8124C42.9121 28.6899 43.1081 28.3877 43.1081 28.061V25.2313V25.0373V17.3055C43.1081 14.978 41.2134 13.0834 38.8941 13.0834C38.0856 13.0834 37.3016 13.312 36.6238 13.7449L34.8924 14.8474C34.0512 15.3864 32.9569 15.3864 32.1158 14.8474L30.3844 13.7449C29.7066 13.312 28.9226 13.0834 28.1141 13.0834C25.7948 13.0834 23.9001 14.978 23.9001 17.3055V25.0292V25.2313V28.061C23.9001 28.3795 24.088 28.6735 24.3819 28.8042Z" fill="white"/>
<path fill-rule="evenodd" clip-rule="evenodd" d="M53.4471 25.0557C53.4471 24.5412 53.2592 24.1002 52.8917 23.7735C51.7647 22.7854 49.2249 23.0957 45.0109 23.6184C44.9292 23.6347 44.8312 23.6429 44.7414 23.6592V28.061C44.7414 29.0737 44.1371 29.9639 43.1979 30.3314C43.1897 30.3396 40.6907 31.3686 37.5548 31.9565C36.2808 32.2015 34.9006 32.3731 33.5449 32.3731C32.0423 32.3731 30.5886 32.2015 29.2901 31.9565C26.0724 31.3522 23.7367 30.3069 23.7041 30.2906C22.8384 29.9067 22.2667 29.0247 22.2667 28.061V23.6592C22.1769 23.6429 22.0789 23.6347 21.9891 23.6184C17.7751 23.0957 15.2352 22.7854 14.1164 23.7735C13.7489 24.1002 13.5529 24.5412 13.5529 25.0557C13.5529 26.8932 16.5582 30.4866 21.1806 33.1979C21.1643 33.3694 21.1479 33.5654 21.1316 33.8022L21.1314 33.8078L21.1651 36.1545C21.4935 40.7291 23.5465 48.6437 33.2917 53.0674C33.4061 53.1164 33.5204 53.1409 33.6347 53.1409C33.7491 53.1409 33.8634 53.1164 33.9696 53.0674C43.7288 48.641 45.7786 40.7194 46.0971 36.146L46.1298 33.794C46.1134 33.4837 46.0889 33.2305 46.0726 33.0427C50.5561 30.3559 53.4471 26.8606 53.4471 25.0557ZM24.5943 36.0889C24.5943 38.3674 26.4481 40.2212 28.7347 40.2212C30.8009 40.2212 32.5241 38.694 32.8181 36.7096C29.9434 36.6197 27.2076 35.9501 24.7494 34.9537C24.6433 35.3212 24.5943 35.7051 24.5943 36.0889ZM34.4433 36.7014C34.7372 38.694 36.4604 40.2294 38.5347 40.2294C40.8214 40.2294 42.6752 38.3674 42.6752 36.0889C42.6752 35.6642 42.6099 35.2559 42.4874 34.8639C40.0456 35.8765 37.3179 36.5789 34.4433 36.7014Z" fill="white"/>
</svg>
