<svg width="67" height="77" viewBox="0 0 67 77" fill="none" xmlns="http://www.w3.org/2000/svg">
<path d="M33.4973 4.70865e-09C21.2053 0.000160052 8.36789 4.07948 0.838673 12.9203L0.0486743 13.8479L0.00997206 15.0652L3.49254 15.1757C0.00997206 15.0652 0.00987617 15.0682 0.00987617 15.0682L0.00975274 15.0722L0.00943018 15.0832L0.00852422 15.1165C0.00782071 15.1438 0.00694037 15.1811 0.00601447 15.2283C0.00416265 15.3226 0.00212785 15.4563 0.000963164 15.6272C-0.00136572 15.9689 -0.000217182 16.4597 0.0128568 17.083C0.0389934 18.329 0.112858 20.1075 0.302534 22.284C0.681198 26.6292 1.52501 32.6029 3.39342 39.1122C7.11547 52.0794 15.0436 67.6072 31.9155 76.1948L33.4973 77L35.0792 76.1948C51.9509 67.6073 59.8804 52.0797 63.6038 39.1126C65.473 32.6033 66.3175 26.6296 66.6967 22.2845C66.8866 20.1079 66.9607 18.3294 66.987 17.0834C67.0001 16.4602 67.0014 15.9693 66.9991 15.6276C66.9979 15.4567 66.9959 15.3231 66.9941 15.2287C66.9932 15.1816 66.9923 15.1442 66.9916 15.117L66.9907 15.0836L66.9904 15.0727L66.9902 15.0687C66.9902 15.0687 66.9901 15.0656 63.5076 15.1757L66.9901 15.0656L66.9516 13.8477L66.161 12.9197C58.6288 4.07918 45.7898 -0.000160033 33.4973 4.70865e-09Z" fill="#F4B514"/>
<path d="M50.3832 40.0899L37.4524 17.3188C36.6299 15.8812 35.1678 15 33.5228 15C31.8779 15 30.4158 15.8812 29.5933 17.3188L16.6168 40.0899C15.7944 41.5275 15.7944 43.2435 16.6168 44.6812C17.4393 46.1188 18.9014 47 20.5463 47H46.4537C48.0986 47 49.5607 46.1188 50.3832 44.6812C51.2056 43.2435 51.2056 41.5275 50.3832 40.0899ZM25.5268 33.458C27.1717 31.7884 29.1821 30.7217 31.421 30.3043C29.9132 31.0928 28.8166 32.6696 28.8166 34.5246C28.8166 36.3797 29.8675 37.9565 31.421 38.7449C29.1821 38.3275 27.1717 37.2609 25.5268 35.5913L24.4758 34.5246L25.5268 33.458ZM33.5228 36.0551C32.7004 36.0551 32.015 35.3594 32.015 34.5246C32.015 33.6899 32.7004 32.9942 33.5228 32.9942C34.3453 32.9942 35.0307 33.6899 35.0307 34.5246C35.0307 35.3594 34.3453 36.0551 33.5228 36.0551ZM35.6247 30.3043C37.8636 30.7217 39.874 31.7884 41.5189 33.458L42.5698 34.5246L41.5189 35.5913C39.874 37.2609 37.8636 38.3275 35.6247 38.7449C37.1325 37.9565 38.2291 36.3797 38.2291 34.5246C38.2291 32.6696 37.1325 31.0928 35.6247 30.3043ZM32.3349 18.942C32.7004 18.3391 33.2487 18.2464 33.4772 18.2464C33.7056 18.2464 34.2996 18.2928 34.6195 18.942L40.0111 28.4493C38.0007 27.429 35.7618 26.8261 33.4315 26.8261C31.1012 26.8261 28.8623 27.3826 26.8518 28.4493L32.3349 18.942ZM47.6416 43.058C47.5046 43.2435 47.1847 43.7536 46.4993 43.7536H20.5463C19.861 43.7536 19.4954 43.2899 19.404 43.058C19.3127 42.8261 19.0385 42.3159 19.404 41.713L22.1913 36.8435L23.2422 37.9101C25.9837 40.6928 29.639 42.2232 33.5228 42.2232C37.4067 42.2232 41.062 40.6928 43.8035 37.9101L44.8544 36.8435L47.6416 41.713C47.9615 42.3159 47.733 42.8725 47.6416 43.058Z" fill="black"/>
</svg>
