<svg width="67" height="77" viewBox="0 0 67 77" fill="none" xmlns="http://www.w3.org/2000/svg">
<path d="M33.4973 4.70865e-09C21.2053 0.000160052 8.36789 4.07948 0.838673 12.9203L0.0486743 13.8479L0.00997206 15.0652L3.49254 15.1757C0.00997206 15.0652 0.00987617 15.0682 0.00987617 15.0682L0.00975274 15.0722L0.00943018 15.0832L0.00852422 15.1165C0.00782071 15.1438 0.00694037 15.1811 0.00601447 15.2283C0.00416265 15.3226 0.00212785 15.4563 0.000963164 15.6272C-0.00136572 15.9689 -0.000217182 16.4597 0.0128568 17.083C0.0389934 18.329 0.112858 20.1075 0.302534 22.284C0.681198 26.6292 1.52501 32.6029 3.39342 39.1122C7.11547 52.0794 15.0436 67.6072 31.9155 76.1948L33.4973 77L35.0792 76.1948C51.9509 67.6073 59.8804 52.0797 63.6038 39.1126C65.473 32.6033 66.3175 26.6296 66.6967 22.2845C66.8866 20.1079 66.9607 18.3294 66.987 17.0834C67.0001 16.4602 67.0014 15.9693 66.9991 15.6276C66.9979 15.4567 66.9959 15.3231 66.9941 15.2287C66.9932 15.1816 66.9923 15.1442 66.9916 15.117L66.9907 15.0836L66.9904 15.0727L66.9902 15.0687C66.9902 15.0687 66.9901 15.0656 63.5076 15.1757L66.9901 15.0656L66.9516 13.8477L66.161 12.9197C58.6288 4.07918 45.7898 -0.000160033 33.4973 4.70865e-09Z" fill="#309FDD"/>
<path d="M35.3564 46.5374H40.9662C42.6081 46.5374 42.6081 49 40.9662 49H26.8277C25.1858 49 25.1858 46.5374 26.8277 46.5374H32.4833V42.3871C27.8311 41.7487 24 37.9172 24 32.9007V27.8831C24 26.5608 26.463 26.5608 26.463 27.8831V32.9003C26.463 34.7704 27.1927 36.5946 28.5612 37.8259C29.8838 39.194 31.708 39.9238 33.5781 39.9238H34.3533C36.2692 39.9238 37.9107 39.194 39.2334 37.8259C40.5102 36.5942 41.2858 34.7704 41.2858 32.9003V27.8831C41.2858 26.6063 43.7487 26.6063 43.7487 27.8831V32.9003C43.7487 37.5522 40.2823 41.6115 35.3564 42.3867V46.5374V46.5374Z" fill="white"/>
<path d="M39.5526 23.8241V20.4946C39.0507 20.4946 38.686 20.084 38.686 19.628C38.686 19.1261 39.0507 18.7614 39.5071 18.7159C39.3248 16.9372 38.23 15.3863 36.6795 14.6111C36.6795 15.0671 36.2689 15.3863 35.8125 15.3863C35.3565 15.3863 34.9459 15.0216 34.9459 14.5197C34.9459 14.3829 34.9914 14.2005 35.0828 14.0637C34.3075 13.9723 33.6233 13.9723 32.848 14.1092C32.9394 14.2005 32.9849 14.3829 32.9849 14.5197C32.9849 15.0216 32.5743 15.3863 32.1183 15.3863C31.6622 15.3863 31.2517 15.0671 31.2517 14.6111C29.7012 15.3863 28.6064 16.9372 28.424 18.7159C28.8801 18.7617 29.2451 19.1264 29.2451 19.628C29.2451 20.084 28.8804 20.4946 28.3785 20.4946V23.8241C28.8804 23.8241 29.2451 24.2347 29.2451 24.6911C29.2451 25.1471 28.8804 25.5577 28.3785 25.5577V32.7638C28.3785 35.6373 30.7501 37.9631 33.5778 37.9631C33.7146 37.9631 34.2162 37.9631 34.353 37.9631C37.2265 37.9631 39.5523 35.637 39.5523 32.7638V25.5573C39.0504 25.5573 38.6857 25.1468 38.6857 24.6907C38.686 24.1892 39.0507 23.8241 39.5526 23.8241ZM30.7046 16.2074C31.1607 16.2074 31.5712 16.5725 31.5712 17.0744C31.5712 17.5304 31.161 17.941 30.7046 17.941C30.2027 17.941 29.838 17.5304 29.838 17.0744C29.838 16.5725 30.2027 16.2074 30.7046 16.2074ZM30.2486 23.0034C29.7467 23.0034 29.382 22.6383 29.382 22.1364C29.382 21.6804 29.7467 21.2698 30.2486 21.2698C30.7046 21.2698 31.1152 21.6804 31.1152 22.1364C31.1152 22.6383 30.7046 23.0034 30.2486 23.0034ZM32.1183 25.5573C31.6164 25.5573 31.2517 25.1926 31.2517 24.6907C31.2517 24.1888 31.6164 23.8238 32.1183 23.8238C32.5743 23.8238 32.9849 24.1888 32.9849 24.6907C32.9849 25.1926 32.5747 25.5573 32.1183 25.5573ZM32.1183 20.4946C31.6164 20.4946 31.2517 20.084 31.2517 19.628C31.2517 19.1261 31.6164 18.7159 32.1183 18.7159C32.5743 18.7159 32.9849 19.1264 32.9849 19.628C32.9849 20.084 32.5747 20.4946 32.1183 20.4946ZM37.2265 16.2074C37.7284 16.2074 38.0931 16.5725 38.0931 17.0744C38.0931 17.5304 37.7284 17.941 37.2265 17.941C36.7246 17.941 36.3599 17.5304 36.3599 17.0744C36.3603 16.5725 36.725 16.2074 37.2265 16.2074ZM33.9425 23.0034C33.4864 23.0034 33.0759 22.6383 33.0759 22.1364C33.0759 21.6804 33.4864 21.2698 33.9425 21.2698C34.4444 21.2698 34.8546 21.6804 34.8546 22.1364C34.8549 22.6383 34.4444 23.0034 33.9425 23.0034ZM33.9425 17.9406C33.4864 17.9406 33.0759 17.5301 33.0759 17.074C33.0759 16.5721 33.4864 16.2071 33.9425 16.2071C34.4444 16.2071 34.8546 16.5721 34.8546 17.074C34.8549 17.5301 34.4444 17.9406 33.9425 17.9406ZM35.8125 25.5573C35.3565 25.5573 34.9459 25.1926 34.9459 24.6907C34.9459 24.1888 35.3565 23.8238 35.8125 23.8238C36.3144 23.8238 36.6795 24.1888 36.6795 24.6907C36.6795 25.1926 36.3144 25.5573 35.8125 25.5573ZM35.8125 20.4946C35.3565 20.4946 34.9459 20.084 34.9459 19.628C34.9459 19.1261 35.3565 18.7159 35.8125 18.7159C36.3144 18.7159 36.6795 19.1264 36.6795 19.628C36.6795 20.084 36.3144 20.4946 35.8125 20.4946ZM37.6826 23.0034C37.1807 23.0034 36.816 22.6383 36.816 22.1364C36.816 21.6804 37.1807 21.2698 37.6826 21.2698C38.1845 21.2698 38.5495 21.6804 38.5495 22.1364C38.5492 22.6383 38.1841 23.0034 37.6826 23.0034Z" fill="white"/>
</svg>
