<svg width="67" height="77" viewBox="0 0 67 77" fill="none" xmlns="http://www.w3.org/2000/svg">
<path d="M33.4973 4.70865e-09C21.2053 0.000160052 8.36789 4.07948 0.838673 12.9203L0.0486743 13.8479L0.00997206 15.0652L3.49254 15.1757C0.00997206 15.0652 0.00987617 15.0682 0.00987617 15.0682L0.00975274 15.0722L0.00943018 15.0832L0.00852421 15.1165C0.00782071 15.1438 0.00694037 15.1811 0.00601447 15.2283C0.00416265 15.3226 0.00212785 15.4563 0.000963164 15.6272C-0.00136572 15.9689 -0.000217182 16.4597 0.0128568 17.083C0.0389934 18.329 0.112858 20.1075 0.302534 22.284C0.681198 26.6292 1.52501 32.6029 3.39342 39.1122C7.11547 52.0794 15.0436 67.6072 31.9155 76.1948L33.4973 77L35.0792 76.1948C51.9509 67.6073 59.8804 52.0797 63.6038 39.1126C65.473 32.6033 66.3175 26.6296 66.6967 22.2845C66.8866 20.1079 66.9607 18.3294 66.987 17.0834C67.0001 16.4602 67.0014 15.9693 66.9991 15.6276C66.9979 15.4567 66.9959 15.3231 66.9941 15.2288C66.9932 15.1816 66.9923 15.1442 66.9916 15.117L66.9907 15.0836L66.9904 15.0727L66.9902 15.0687C66.9902 15.0687 66.9901 15.0656 63.5076 15.1757L66.9901 15.0656L66.9516 13.8477L66.161 12.9197C58.6288 4.07918 45.7898 -0.000160033 33.4973 4.70865e-09Z" fill="#F4B514"/>
<path d="M30.098 26.3919C30.098 23.6479 30.2123 20.7079 30.441 17.5719H37.399C37.595 20.4792 37.693 23.2232 37.693 25.8039C37.693 31.9126 37.154 37.1392 36.076 41.4839H31.666C30.6207 37.2372 30.098 32.2066 30.098 26.3919ZM33.871 51.8719C31.2903 51.8719 30 50.6632 30 48.2459C30 45.8286 31.2903 44.6199 33.871 44.6199C36.4843 44.6199 37.791 45.8286 37.791 48.2459C37.791 50.6632 36.4843 51.8719 33.871 51.8719Z" fill="black"/>
</svg>
